============================= test session starts ==============================
platform darwin -- Python 3.9.10, pytest-7.0.1, pluggy-1.0.0
rootdir: /Users/alexwell/PycharmProjects/pythontet
collected 0 items

============================ no tests ran in 0.00s =============================
